module gitlab.com/my-street-route-planner

go 1.17

require (
	github.com/google/uuid v1.1.2
	github.com/labstack/echo/v4 v4.6.3
	github.com/pkg/errors v0.8.1
	github.com/spf13/cobra v1.3.0
	github.com/spf13/viper v1.10.1
	go.uber.org/zap v1.17.0
)

require (
	github.com/fsnotify/fsnotify v1.5.1 // indirect
	github.com/hashicorp/hcl v1.0.0 // indirect
	github.com/inconshreveable/mousetrap v1.0.0 // indirect
	github.com/labstack/gommon v0.3.1 // indirect
	github.com/magiconair/properties v1.8.5 // indirect
	github.com/mattn/go-colorable v0.1.12 // indirect
	github.com/mattn/go-isatty v0.0.14 // indirect
	github.com/mitchellh/mapstructure v1.4.3 // indirect
	github.com/pelletier/go-toml v1.9.4 // indirect
	github.com/spf13/afero v1.6.0 // indirect
	github.com/spf13/cast v1.4.1 // indirect
	github.com/spf13/jwalterweatherman v1.1.0 // indirect
	github.com/spf13/pflag v1.0.5 // indirect
	github.com/subosito/gotenv v1.2.0 // indirect
	github.com/valyala/bytebufferpool v1.0.0 // indirect
	github.com/valyala/fasttemplate v1.2.1 // indirect
	go.uber.org/atomic v1.7.0 // indirect
	go.uber.org/multierr v1.6.0 // indirect
	golang.org/x/crypto v0.0.0-20210817164053-32db794688a5 // indirect
	golang.org/x/net v0.0.0-20210913180222-943fd674d43e // indirect
	golang.org/x/sys v0.0.0-20220114195835-da31bd327af9 // indirect
	golang.org/x/text v0.3.7 // indirect
	gopkg.in/ini.v1 v1.66.2 // indirect
	gopkg.in/yaml.v2 v2.4.0 // indirect
)
